QUANTITY – MY_FIRST_BLOG
…
N (NA)
116716 (0)
21057 (0)
30 (0)

Which countries host the maximum number of races? Which countries send the maximum number of participants??

race_df %>%
  count(country) %>%
  arrange(desc(n))

# A tibble: 61 × 2
   country            n
   <chr>          <int>
 1 United States    438
 2 United Kingdom   110
 3 France            56
 4 Australia         46
 5 Sweden            46
 6 China             45
 7 Canada            32
 8 Spain             27
 9 Japan             24
10 Poland            23
# ℹ 51 more rows

rank_df %>%
  count(nationality) %>%
  arrange(desc(n))

# A tibble: 133 × 2
   nationality     n
   <chr>       <int>
 1 USA         47259
 2 FRA         28905
 3 GBR         11076
 4 JPN          6729
 5 ESP          5478
 6 CHN          4744
 7 CAN          2822
 8 ITA          2794
 9 SWE          2293
10 AUS          1683
# ℹ 123 more rows

rank_df %>%
  filter(rank %in% c(1, 2, 3)) %>%
  count(nationality) %>%
  arrange(desc(n))

# A tibble: 69 × 2
   nationality     n
   <chr>       <int>
 1 USA          1240
 2 GBR           347
 3 FRA           210
 4 AUS           140
 5 CAN           132
 6 CHN           128
 7 SWE           124
 8 ESP           113
 9 JPN            94
10 ITA            79
# ℹ 59 more rows
