Coffee Flavours(A2) – MY_FIRST_BLOG
…
coffee_ratings <- read_delim("../../data /coffee_ratings.csv")

Rows: 1339 Columns: 43
── Column specification ────────────────────────────────────────────────────────
Delimiter: ";"
chr (25): species, owner, country_of_origin, farm_name, lot_number, mill, ic...
dbl  (4): number_of_bags, category_one_defects, quakers, category_two_defects
num (14): total_cup_points, aroma, flavor, aftertaste, acidity, body, balanc...

ℹ Use `spec()` to retrieve the full column specification for this data.
ℹ Specify the column types or set `show_col_types = FALSE` to quiet this message.

coffee_ratings

# A tibble: 1,339 × 43
   total_cup_points species owner   country_of_origin farm_name lot_number mill 
              <dbl> <chr>   <chr>   <chr>             <chr>     <chr>      <chr>
 1             9058 Arabica metad … Ethiopia          "metad p… <NA>       meta…
 2             8992 Arabica metad … Ethiopia          "metad p… <NA>       meta…
 3             8975 Arabica ground… Guatemala         "san mar… <NA>       <NA> 
 4             8900 Arabica yidnek… Ethiopia          "yidneka… <NA>       wole…
 5             8883 Arabica metad … Ethiopia          "metad p… <NA>       meta…
 6             8883 Arabica ji-ae … Brazil             <NA>     <NA>       <NA> 
 7             8875 Arabica hugo v… Peru               <NA>     <NA>       hvc  
 8             8867 Arabica ethiop… Ethiopia          "aolme"   <NA>       c.p.…
 9             8842 Arabica ethiop… Ethiopia          "aolme"   <NA>       c.p.…
10             8825 Arabica diamon… Ethiopia          "tulla c… <NA>       tull…
# ℹ 1,329 more rows
# ℹ 36 more variables: ico_number <chr>, company <chr>, altitude <chr>,
#   region <chr>, producer <chr>, number_of_bags <dbl>, bag_weight <chr>,
#   in_country_partner <chr>, harvest_year <chr>, grading_date <chr>,
#   owner_1 <chr>, variety <chr>, processing_method <chr>, aroma <dbl>,
#   flavor <dbl>, aftertaste <dbl>, acidity <dbl>, body <dbl>, balance <dbl>,
#   uniformity <dbl>, clean_cup <dbl>, sweetness <dbl>, cupper_points <dbl>, …
…
Lets do some data munging and cleaning of this data

First breadcrumb

It counts how many coffee entries exist for each country of origin in the coffee_ratings dataset.

It organizes these counts in descending order, making it easy to identify which countries have the highest number of entries in the dataset.

coffee_ratings %>% 
  count(country_of_origin) %>% 
  arrange(desc(n))

# A tibble: 37 × 2
   country_of_origin                n
   <chr>                        <int>
 1 Mexico                         236
 2 Colombia                       183
 3 Guatemala                      181
 4 Brazil                         132
 5 Taiwan                          75
 6 United States (Hawaii)          73
 7 Honduras                        53
 8 Costa Rica                      51
 9 Ethiopia                        44
10 Tanzania, United Republic Of    40
# ℹ 27 more rows
…
coffee_mod <- coffee_ratings %>%
  ##drop_na() %>% 
  mutate (
    country_of_origin = as_factor(country_of_origin),
    total_cup_points = total_cup_points/100,
    aroma = aroma/100,
    flavor = flavor/100,
    aftertaste = aftertaste/100,
    acidity = acidity/100,
    body = body/100
  )
coffee_mod

# A tibble: 1,339 × 43
   total_cup_points species owner   country_of_origin farm_name lot_number mill 
              <dbl> <chr>   <chr>   <fct>             <chr>     <chr>      <chr>
 1             90.6 Arabica metad … Ethiopia          "metad p… <NA>       meta…
 2             89.9 Arabica metad … Ethiopia          "metad p… <NA>       meta…
 3             89.8 Arabica ground… Guatemala         "san mar… <NA>       <NA> 
 4             89   Arabica yidnek… Ethiopia          "yidneka… <NA>       wole…
 5             88.8 Arabica metad … Ethiopia          "metad p… <NA>       meta…
 6             88.8 Arabica ji-ae … Brazil             <NA>     <NA>       <NA> 
 7             88.8 Arabica hugo v… Peru               <NA>     <NA>       hvc  
 8             88.7 Arabica ethiop… Ethiopia          "aolme"   <NA>       c.p.…
 9             88.4 Arabica ethiop… Ethiopia          "aolme"   <NA>       c.p.…
10             88.2 Arabica diamon… Ethiopia          "tulla c… <NA>       tull…
# ℹ 1,329 more rows
# ℹ 36 more variables: ico_number <chr>, company <chr>, altitude <chr>,
#   region <chr>, producer <chr>, number_of_bags <dbl>, bag_weight <chr>,
#   in_country_partner <chr>, harvest_year <chr>, grading_date <chr>,
#   owner_1 <chr>, variety <chr>, processing_method <chr>, aroma <dbl>,
#   flavor <dbl>, aftertaste <dbl>, acidity <dbl>, body <dbl>, balance <dbl>,
#   uniformity <dbl>, clean_cup <dbl>, sweetness <dbl>, cupper_points <dbl>, …
library(dplyr)

coffee_new <- coffee_mod %>% 
  group_by(country_of_origin) %>% 
  summarize(
    total_cup_points = mean(total_cup_points, na.rm = TRUE),  
    aroma = mean(aroma, na.rm = TRUE),
    flavor = mean(flavor, na.rm = TRUE),
    aftertaste = mean(aftertaste, na.rm = TRUE),
    acidity = mean(acidity, na.rm = TRUE),
    body = mean(body, na.rm = TRUE)
  )
coffee_new

# A tibble: 37 × 7
   country_of_origin      total_cup_points aroma flavor aftertaste acidity  body
   <fct>                             <dbl> <dbl>  <dbl>      <dbl>   <dbl> <dbl>
 1 Ethiopia                           85.5  7.90   8.01       7.89    8.04  7.92
 2 Guatemala                          81.8  7.54   7.49       7.27    7.60  7.48
 3 Brazil                             82.4  7.55   7.57       7.44    7.51  7.54
 4 Peru                               82.5  7.69   7.66       7.54    7.70  7.80
 5 United States                      84.4  7.83   7.99       7.85    7.94  7.84
 6 United States (Hawaii)             81.8  7.57   7.58       7.50    7.62  7.63
 7 Indonesia                          82.6  7.65   7.57       7.42    7.49  7.63
 8 China                              82.9  7.64   7.63       7.48    7.58  7.57
 9 Costa Rica                         82.8  7.67   7.54       7.53    7.57  7.54
10 Mexico                             80.9  7.46   7.38       7.23    7.43  7.38
# ℹ 27 more rows
…
Fifth Breadcrumb

The code takes the coffee_hihi data frame and reshapes it into a long format, creating a new data frame called coffee_final. In coffee_final, each row corresponds to a specific rank for a coffee parameter (total points, aroma, flavor, etc.) associated with a country, which facilitates further analysis or visualization.

coffee_final <- coffee_hihi %>% 
  pivot_longer( 
    cols = c(total_points_rank, aroma_rank, flavor_rank, aftertaste_rank, acidity_rank, body_rank),
    cols_vary = "fastest",
    names_to = "parameter",
    values_to = "ranks")
##
coffee_final

# A tibble: 30 × 3
   country_of_origin parameter         ranks
   <fct>             <chr>             <dbl>
 1 Papua New Guinea  total_points_rank     5
 2 Papua New Guinea  aroma_rank            5
 3 Papua New Guinea  flavor_rank           5
 4 Papua New Guinea  aftertaste_rank       3
 5 Papua New Guinea  acidity_rank          5
 6 Papua New Guinea  body_rank             4
 7 Ethiopia          total_points_rank     4
 8 Ethiopia          aroma_rank            4
 9 Ethiopia          flavor_rank           4
10 Ethiopia          aftertaste_rank       5
# ℹ 20 more rows
…
