TIPS(A3) – MY_FIRST_BLOG
…
tip <-read_csv("../../data /tip.csv")

Rows: 60 Columns: 4
── Column specification ────────────────────────────────────────────────────────
Delimiter: ","
chr (3): Name, Gender, Preferance
dbl (1): Tip

ℹ Use `spec()` to retrieve the full column specification for this data.
ℹ Specify the column types or set `show_col_types = FALSE` to quiet this message.

tip 

# A tibble: 60 × 4
   Name     Gender Preferance   Tip
   <chr>    <chr>  <chr>      <dbl>
 1 Aanya    Female Veg            0
 2 Adit     Male   Veg            0
 3 Aditi    Female Veg           20
 4 Akash    Male   Non-veg        0
 5 Akshita  Female Non-veg        0
 6 Anandita Female Non-veg        0
 7 Ananya   Female Non-veg       20
 8 Anaya    Female Veg           35
 9 Anhuya   Female Veg           40
10 Ankit    Male   Non-veg        0
# ℹ 50 more rows
…
The data we collected for both the Vegetarian and Non-Vegetarian groups doesn’t match what we would expect based on our theory. This difference suggests that the sample data is not normally distributed, which means it doesn’t follow the typical bell-shaped curve that we often see in statistics. So it isnt normal for sure !

Let’s do a Shapiro-Wilk test

tip %>% filter(Preferance == "Non-veg") %>% select(Tip) -> NonVeg
tip %>% filter(Preferance == "Veg") %>% select(Tip) -> Veg
NonVeg

# A tibble: 30 × 1
     Tip
   <dbl>
 1     0
 2     0
 3     0
 4    20
 5     0
 6     0
 7     0
 8     0
 9     0
10    20
# ℹ 20 more rows

Veg

# A tibble: 30 × 1
     Tip
   <dbl>
 1     0
 2     0
 3    20
 4    35
 5    40
 6     0
 7     0
 8     0
 9    15
10   100
# ℹ 20 more rows
…
