CARTOONS(A3) – MY_FIRST_BLOG
…
cdd <-read_csv("../../data /cdd.csv")

Rows: 90 Columns: 4
── Column specification ────────────────────────────────────────────────────────
Delimiter: ","
chr (3): Participant ID, Gender, Cartoon
dbl (1): Rating

ℹ Use `spec()` to retrieve the full column specification for this data.
ℹ Specify the column types or set `show_col_types = FALSE` to quiet this message.

cdd

# A tibble: 90 × 4
   `Participant ID` Gender Cartoon     Rating
   <chr>            <chr>  <chr>        <dbl>
 1 P1               Male   Chota Bheem    8.5
 2 P2               Male   Chota Bheem    6  
 3 P3               Male   Chota Bheem    8  
 4 P4               Male   Chota Bheem    7  
 5 P5               Male   Chota Bheem    8  
 6 P6               Male   Chota Bheem   10  
 7 P7               Male   Chota Bheem    5  
 8 P8               Male   Chota Bheem    7.8
 9 P9               Male   Chota Bheem    8.5
10 P10              Male   Chota Bheem    5  
# ℹ 80 more rows
…
null_dist_infer <- cdd %>%
  specify(Rating ~ Cartoon) %>%
  hypothesise(null = "independence") %>%
  generate(reps = 4999, type = "permute") %>%
  calculate(stat = "F")
##
null_dist_infer

Response: Rating (numeric)
Explanatory: Cartoon (factor)
Null Hypothesis: independence
# A tibble: 4,999 × 2
   replicate  stat
       <int> <dbl>
 1         1 2.02 
 2         2 0.283
 3         3 0.244
 4         4 0.288
 5         5 0.788
 6         6 0.592
 7         7 0.315
 8         8 1.39 
 9         9 2.90 
10        10 0.626
# ℹ 4,989 more rows
…
