Hearing Loss in Children(epic fail hogya) – MY_FIRST_BLOG
…
Rows: 1,097
Columns: 8
$ rownames <dbl> 1, 2, 3, 4, 5, 6, 7, 8, 9, 10, 11, 12, 13, 14, 15, 16, 17, 18…
$ ID       <dbl> 1, 1, 1, 1, 1, 1, 1, 1, 1, 1, 1, 1, 1, 1, 1, 1, 1, 1, 1, 1, 3…
$ Age      <dbl> 30, 30, 30, 30, 30, 30, 30, 30, 30, 30, 60, 60, 60, 60, 60, 6…
$ OME      <chr> "low", "low", "low", "low", "low", "low", "low", "low", "low"…
$ Loud     <dbl> 35, 35, 40, 40, 45, 45, 50, 50, 55, 55, 35, 35, 40, 40, 45, 4…
$ Noise    <chr> "coherent", "incoherent", "coherent", "incoherent", "coherent…
$ Correct  <dbl> 1, 4, 0, 1, 2, 2, 3, 4, 3, 2, 2, 3, 1, 1, 1, 5, 4, 2, 3, 4, 4…
$ Trials   <dbl> 4, 5, 3, 1, 4, 2, 3, 4, 3, 2, 4, 4, 4, 1, 2, 5, 4, 2, 3, 4, 6…

ome

# A tibble: 1,097 × 8
   rownames    ID   Age OME    Loud Noise      Correct Trials
      <dbl> <dbl> <dbl> <chr> <dbl> <chr>        <dbl>  <dbl>
 1        1     1    30 low      35 coherent         1      4
 2        2     1    30 low      35 incoherent       4      5
 3        3     1    30 low      40 coherent         0      3
 4        4     1    30 low      40 incoherent       1      1
 5        5     1    30 low      45 coherent         2      4
 6        6     1    30 low      45 incoherent       2      2
 7        7     1    30 low      50 coherent         3      3
 8        8     1    30 low      50 incoherent       4      4
 9        9     1    30 low      55 coherent         3      3
10       10     1    30 low      55 incoherent       2      2
# ℹ 1,087 more rows
…
Rows: 1,097
Columns: 8
$ rownames <dbl> 1, 2, 3, 4, 5, 6, 7, 8, 9, 10, 11, 12, 13, 14, 15, 16, 17, 18…
$ ID       <fct> 1, 1, 1, 1, 1, 1, 1, 1, 1, 1, 1, 1, 1, 1, 1, 1, 1, 1, 1, 1, 3…
$ Age      <fct> 30, 30, 30, 30, 30, 30, 30, 30, 30, 30, 60, 60, 60, 60, 60, 6…
$ OME      <ord> low, low, low, low, low, low, low, low, low, low, low, low, l…
$ Loud     <fct> 35, 35, 40, 40, 45, 45, 50, 50, 55, 55, 35, 35, 40, 40, 45, 4…
$ Noise    <fct> coherent, incoherent, coherent, incoherent, coherent, incoher…
$ Correct  <dbl> 1, 4, 0, 1, 2, 2, 3, 4, 3, 2, 2, 3, 1, 1, 1, 5, 4, 2, 3, 4, 4…
$ Trials   <dbl> 4, 5, 3, 1, 4, 2, 3, 4, 3, 2, 4, 4, 4, 1, 2, 5, 4, 2, 3, 4, 6…

ome

# A tibble: 1,097 × 8
   rownames ID    Age   OME   Loud  Noise      Correct Trials
      <dbl> <fct> <fct> <ord> <fct> <fct>        <dbl>  <dbl>
 1        1 1     30    low   35    coherent         1      4
 2        2 1     30    low   35    incoherent       4      5
 3        3 1     30    low   40    coherent         0      3
 4        4 1     30    low   40    incoherent       1      1
 5        5 1     30    low   45    coherent         2      4
 6        6 1     30    low   45    incoherent       2      2
 7        7 1     30    low   50    coherent         3      3
 8        8 1     30    low   50    incoherent       4      4
 9        9 1     30    low   55    coherent         3      3
10       10 1     30    low   55    incoherent       2      2
# ℹ 1,087 more rows

SO, the formatted dataset on the website had another column called success rate. to create that let us mutate it again so that we have a picture perfect graph like arvinds.

now we have an additional column success_rate, which represents the percentage of successful responses for each individual.

ome <- ome %>%
  mutate(success_rate = Correct / Trials)

ome

# A tibble: 1,097 × 9
   rownames ID    Age   OME   Loud  Noise      Correct Trials success_rate
      <dbl> <fct> <fct> <ord> <fct> <fct>        <dbl>  <dbl>        <dbl>
 1        1 1     30    low   35    coherent         1      4         0.25
 2        2 1     30    low   35    incoherent       4      5         0.8 
 3        3 1     30    low   40    coherent         0      3         0   
 4        4 1     30    low   40    incoherent       1      1         1   
 5        5 1     30    low   45    coherent         2      4         0.5 
 6        6 1     30    low   45    incoherent       2      2         1   
 7        7 1     30    low   50    coherent         3      3         1   
 8        8 1     30    low   50    incoherent       4      4         1   
 9        9 1     30    low   55    coherent         3      3         1   
10       10 1     30    low   55    incoherent       2      2         1   
# ℹ 1,087 more rows
…
