SUMMARIES – MY_FIRST_BLOG
…
Lets mutate this

docVisits_modified <- docVisits %>%
  mutate(
    gender = as_factor(gender),
    private = as_factor(private),
    freepoor = as_factor(freepoor),
    freerepat = as_factor(freerepat),
    nchronic = as_factor(nchronic),
    lchronic = as_factor(lchronic)
  )
docVisits_modified

# A tibble: 5,190 × 13
   rownames visits gender   age income illness reduced health private freepoor
      <dbl>  <dbl> <fct>  <dbl>  <dbl>   <dbl>   <dbl>  <dbl> <fct>   <fct>   
 1        1      1 female  0.19   0.55       1       4      1 yes     no      
 2        2      1 female  0.19   0.45       1       2      1 yes     no      
 3        3      1 male    0.19   0.9        3       0      0 no      no      
 4        4      1 male    0.19   0.15       1       0      0 no      no      
 5        5      1 male    0.19   0.45       2       5      1 no      no      
 6        6      1 female  0.19   0.35       5       1      9 no      no      
 7        7      1 female  0.19   0.55       4       0      2 no      no      
 8        8      1 female  0.19   0.15       3       0      6 no      no      
 9        9      1 female  0.19   0.65       2       0      5 yes     no      
10       10      1 male    0.19   0.15       1       0      0 yes     no      
# ℹ 5,180 more rows
# ℹ 3 more variables: freerepat <fct>, nchronic <fct>, lchronic <fct>
…
Rows: 599 Columns: 1
── Column specification ────────────────────────────────────────────────────────
Delimiter: ","
chr (1): Age;Gender;Grade;AMAS;RCMAS;Arith

ℹ Use `spec()` to retrieve the full column specification for this data.
ℹ Specify the column types or set `show_col_types = FALSE` to quiet this message.

math_anxiety

# A tibble: 599 × 1
   `Age;Gender;Grade;AMAS;RCMAS;Arith`
   <chr>                              
 1 137,8;Boy;Secondary;9;20;6         
 2 140,7;Boy;Secondary;18;8;6         
 3 137,9;Girl;Secondary;23;26;5       
 4 142,8;Girl;Secondary;19;18;7       
 5 135,6;Boy;Secondary;23;20;1        
 6 135,0;Girl;Secondary;27;33;1       
 7 133,6;Boy;Secondary;22;23;4        
 8 139,3;Boy;Secondary;17;11;7        
 9 131,7;Girl;Secondary;28;32;2       
10 134,8;Boy;Secondary;20;30;6        
# ℹ 589 more rows
…
math_anxiety <- read_delim(file = "../../data /MathAnxiety.csv", delim = ";" )

Rows: 599 Columns: 6
── Column specification ────────────────────────────────────────────────────────
Delimiter: ";"
chr (2): Gender, Grade
dbl (3): AMAS, RCMAS, Arith
num (1): Age

ℹ Use `spec()` to retrieve the full column specification for this data.
ℹ Specify the column types or set `show_col_types = FALSE` to quiet this message.

math_anxiety

# A tibble: 599 × 6
     Age Gender Grade      AMAS RCMAS Arith
   <dbl> <chr>  <chr>     <dbl> <dbl> <dbl>
 1  1378 Boy    Secondary     9    20     6
 2  1407 Boy    Secondary    18     8     6
 3  1379 Girl   Secondary    23    26     5
 4  1428 Girl   Secondary    19    18     7
 5  1356 Boy    Secondary    23    20     1
 6  1350 Girl   Secondary    27    33     1
 7  1336 Boy    Secondary    22    23     4
 8  1393 Boy    Secondary    17    11     7
 9  1317 Girl   Secondary    28    32     2
10  1348 Boy    Secondary    20    30     6
# ℹ 589 more rows
…
